%YAML 1.1
%TAG !u! tag:unity3d.com,2011:
--- !u!1045 &1
EditorBuildSettings:
  m_ObjectHideFlags: 0
  serializedVersion: 2
  m_Scenes:
  - enabled: 1
    path: Assets/Scenes/rekrypeli.unity
    guid: 09047683b23fc6e43977f059ba88a020
  - enabled: 1
    path: Assets/Scenes/lajittelu.unity
    guid: b350b4e18d0862f4eb79c5c9fe6a1355
  - enabled: 1
    path: Assets/Scenes/vaaramerkit.unity
    guid: dd2b1f06d78c44142981de60e2f45c9d
  - enabled: 1
    path: Assets/Scenes/fishing.unity
    guid: 8cef4de530e1b6946a8c3a4139aa0a9e
  m_configObjects: {}
